simulation/qsim/autito.msim.vcd
$comment
	File created using the following command:
		vcd file autito.msim.vcd -direction
$end
$date
	Sun Oct 29 18:15:06 2023
$end
$version
	ModelSim Version 10.1d
$end
$timescale
	1ps
$end
$scope module autito_principal_vlg_vec_tst $end
$var reg 1 ! CLK $end
$var reg 1 " RESET $end
$var reg 2 # SENSOR [1:0] $end
$var reg 1 $ STOP $end
$var wire 1 % En_A $end
$var wire 1 & En_B $end
$var wire 1 ' IN_DRIVER [3] $end
$var wire 1 ( IN_DRIVER [2] $end
$var wire 1 ) IN_DRIVER [1] $end
$var wire 1 * IN_DRIVER [0] $end
$var wire 1 + sampler $end
$scope module i1 $end
$var wire 1 , gnd $end
$var wire 1 - vcc $end
$var wire 1 . unknown $end
$var tri1 1 / devclrn $end
$var tri1 1 0 devpor $end
$var tri1 1 1 devoe $end
$var wire 1 2 DERECHO|inst1|altpll_component|auto_generated|wire_pll1_fbout $end
$var wire 1 3 IZQUIERDO|inst|fstate.state4~q $end
$var wire 1 4 IZQUIERDO|inst|fstate.state5~q $end
$var wire 1 5 IZQUIERDO|inst|fstate.state13~q $end
$var wire 1 6 IZQUIERDO|inst|WideOr18~0_combout $end
$var wire 1 7 inst1|fstate.RECTA~q $end
$var wire 1 8 IZQUIERDO|inst|fstate.state10~q $end
$var wire 1 9 IZQUIERDO|inst|fstate.state14~q $end
$var wire 1 : IZQUIERDO|inst|WideOr18~1_combout $end
$var wire 1 ; IZQUIERDO|inst|fstate.state15~q $end
$var wire 1 < IZQUIERDO|inst|Z[0]~0_combout $end
$var wire 1 = IZQUIERDO|inst3~0_combout $end
$var wire 1 > IZQUIERDO|inst3~1_combout $end
$var wire 1 ? DERECHO|inst|fstate.state4~q $end
$var wire 1 @ DERECHO|inst|fstate.state8~q $end
$var wire 1 A IZQUIERDO|inst|fstate.state16~q $end
$var wire 1 B IZQUIERDO|inst|reg_fstate.state4~0_combout $end
$var wire 1 C IZQUIERDO|inst|reg_fstate.state5~0_combout $end
$var wire 1 D IZQUIERDO|inst|reg_fstate.state13~0_combout $end
$var wire 1 E inst1|reg_fstate.RECTA~0_combout $end
$var wire 1 F IZQUIERDO|inst|reg_fstate.state10~0_combout $end
$var wire 1 G IZQUIERDO|inst|reg_fstate.state14~0_combout $end
$var wire 1 H IZQUIERDO|inst|reg_fstate.state15~0_combout $end
$var wire 1 I DERECHO|inst|reg_fstate.state4~0_combout $end
$var wire 1 J DERECHO|inst|reg_fstate.state8~0_combout $end
$var wire 1 K IZQUIERDO|inst|reg_fstate.state16~0_combout $end
$var wire 1 L CLK~input_o $end
$var wire 1 M DERECHO|inst1|altpll_component|auto_generated|wire_pll1_clk[0]~clkctrl_outclk $end
$var wire 1 N CLK~inputclkctrl_outclk $end
$var wire 1 O RESET~input_o $end
$var wire 1 P IZQUIERDO|inst|reg_fstate.state1~0_combout $end
$var wire 1 Q IZQUIERDO|inst|fstate.state1~q $end
$var wire 1 R IZQUIERDO|inst|reg_fstate.state2~0_combout $end
$var wire 1 S IZQUIERDO|inst|fstate.state2~q $end
$var wire 1 T IZQUIERDO|inst|reg_fstate.state3~0_combout $end
$var wire 1 U IZQUIERDO|inst|fstate.state3~q $end
$var wire 1 V IZQUIERDO|inst|WideOr17~0_combout $end
$var wire 1 W SENSOR[0]~input_o $end
$var wire 1 X SENSOR[1]~input_o $end
$var wire 1 Y inst1|Selector2~0_combout $end
$var wire 1 Z inst1|fstate.IZQ~q $end
$var wire 1 [ IZQUIERDO|inst|reg_fstate.state6~0_combout $end
$var wire 1 \ IZQUIERDO|inst|fstate.state6~q $end
$var wire 1 ] IZQUIERDO|inst|reg_fstate.state7~0_combout $end
$var wire 1 ^ IZQUIERDO|inst|fstate.state7~q $end
$var wire 1 _ IZQUIERDO|inst|reg_fstate.state8~0_combout $end
$var wire 1 ` IZQUIERDO|inst|fstate.state8~q $end
$var wire 1 a IZQUIERDO|inst3~2_combout $end
$var wire 1 b IZQUIERDO|inst|reg_fstate.state11~0_combout $end
$var wire 1 c IZQUIERDO|inst|fstate.state11~q $end
$var wire 1 d IZQUIERDO|inst|reg_fstate.state12~0_combout $end
$var wire 1 e IZQUIERDO|inst|fstate.state12~q $end
$var wire 1 f IZQUIERDO|inst|reg_fstate.state9~0_combout $end
$var wire 1 g IZQUIERDO|inst|fstate.state9~q $end
$var wire 1 h IZQUIERDO|inst|WideOr17~1_combout $end
$var wire 1 i IZQUIERDO|inst3~3_combout $end
$var wire 1 j STOP~input_o $end
$var wire 1 k IZQUIERDO|inst3~4_combout $end
$var wire 1 l DERECHO|inst|reg_fstate.state12~0_combout $end
$var wire 1 m DERECHO|inst|fstate.state12~q $end
$var wire 1 n DERECHO|inst|reg_fstate.state13~0_combout $end
$var wire 1 o DERECHO|inst|fstate.state13~q $end
$var wire 1 p DERECHO|inst|reg_fstate.state14~0_combout $end
$var wire 1 q DERECHO|inst|fstate.state14~q $end
$var wire 1 r DERECHO|inst|reg_fstate.state15~0_combout $end
$var wire 1 s DERECHO|inst|fstate.state15~q $end
$var wire 1 t DERECHO|inst|reg_fstate.state16~0_combout $end
$var wire 1 u DERECHO|inst|fstate.state16~q $end
$var wire 1 v DERECHO|inst|reg_fstate.state1~0_combout $end
$var wire 1 w DERECHO|inst|fstate.state1~q $end
$var wire 1 x DERECHO|inst|reg_fstate.state2~0_combout $end
$var wire 1 y DERECHO|inst|fstate.state2~q $end
$var wire 1 z DERECHO|inst|reg_fstate.state3~0_combout $end
$var wire 1 { DERECHO|inst|fstate.state3~q $end
$var wire 1 | DERECHO|inst|WideOr17~0_combout $end
$var wire 1 } DERECHO|inst|reg_fstate.state5~0_combout $end
$var wire 1 ~ DERECHO|inst|fstate.state5~q $end
$var wire 1 !! DERECHO|inst|reg_fstate.state9~0_combout $end
$var wire 1 "! DERECHO|inst|fstate.state9~q $end
$var wire 1 #! DERECHO|inst|WideOr18~0_combout $end
$var wire 1 $! DERECHO|inst|reg_fstate.state6~0_combout $end
$var wire 1 %! DERECHO|inst|fstate.state6~q $end
$var wire 1 &! DERECHO|inst|reg_fstate.state7~0_combout $end
$var wire 1 '! DERECHO|inst|fstate.state7~q $end
$var wire 1 (! DERECHO|inst|reg_fstate.state10~0_combout $end
$var wire 1 )! DERECHO|inst|fstate.state10~q $end
$var wire 1 *! DERECHO|inst|reg_fstate.state11~0_combout $end
$var wire 1 +! DERECHO|inst|fstate.state11~q $end
$var wire 1 ,! DERECHO|inst|Z[0]~0_combout $end
$var wire 1 -! DERECHO|inst|WideOr18~1_combout $end
$var wire 1 .! DERECHO|inst3~0_combout $end
$var wire 1 /! inst1|reg_fstate.DER~0_combout $end
$var wire 1 0! inst1|fstate.DER~q $end
$var wire 1 1! DERECHO|inst3~1_combout $end
$var wire 1 2! DERECHO|inst3~2_combout $end
$var wire 1 3! DERECHO|inst|WideOr17~1_combout $end
$var wire 1 4! DERECHO|inst3~3_combout $end
$var wire 1 5! DERECHO|inst3~4_combout $end
$var wire 1 6! inst1|reg_fstate.ATRAS~0_combout $end
$var wire 1 7! inst1|fstate.ATRAS~q $end
$var wire 1 8! inst1|IN_A[3]~0_combout $end
$var wire 1 9! inst1|IN_A[2]~1_combout $end
$var wire 1 :! DERECHO|inst1|altpll_component|auto_generated|wire_pll1_clk [4] $end
$var wire 1 ;! DERECHO|inst1|altpll_component|auto_generated|wire_pll1_clk [3] $end
$var wire 1 <! DERECHO|inst1|altpll_component|auto_generated|wire_pll1_clk [2] $end
$var wire 1 =! DERECHO|inst1|altpll_component|auto_generated|wire_pll1_clk [1] $end
$var wire 1 >! DERECHO|inst1|altpll_component|auto_generated|wire_pll1_clk [0] $end
$var wire 1 ?! DERECHO|inst1|altpll_component|auto_generated|pll1_CLK_bus [4] $end
$var wire 1 @! DERECHO|inst1|altpll_component|auto_generated|pll1_CLK_bus [3] $end
$var wire 1 A! DERECHO|inst1|altpll_component|auto_generated|pll1_CLK_bus [2] $end
$var wire 1 B! DERECHO|inst1|altpll_component|auto_generated|pll1_CLK_bus [1] $end
$var wire 1 C! DERECHO|inst1|altpll_component|auto_generated|pll1_CLK_bus [0] $end
$upscope $end
$upscope $end
$enddefinitions $end
#0
$dumpvars
0!
1"
b0 #
1$
1%
1&
0*
1)
0(
1'
x+
0,
1-
x.
1/
10
11
x2
03
04
05
06
07
08
09
1:
0;
1<
1=
1>
0?
0@
0A
0B
0C
0D
0E
0F
0G
0H
0I
0J
0K
0L
xM
0N
1O
1P
0Q
1R
0S
0T
0U
0V
0W
0X
0Y
0Z
0[
0\
0]
0^
0_
0`
0a
0b
0c
0d
0e
0f
0g
1h
0i
1j
1k
0l
0m
0n
0o
0p
0q
0r
0s
0t
0u
1v
0w
1x
0y
0z
0{
0|
0}
0~
0!!
0"!
0#!
0$!
0%!
0&!
0'!
0(!
0)!
0*!
0+!
1,!
1-!
1.!
0/!
00!
11!
02!
13!
04!
15!
06!
07!
08!
09!
x>!
x=!
x<!
x;!
x:!
xC!
xB!
xA!
x@!
x?!
$end
#833
12
#10000
1!
0+
1L
1N
#10833
02
#20000
0!
1+
0L
0N
#20833
12
#30000
1!
0+
1L
1N
#30833
02
#40000
0!
1+
0L
0N
#40833
12
#50000
1!
0+
1L
1N
#50833
02
#60000
0!
1+
0L
0N
#60833
12
#70000
1!
0+
1L
1N
#75416
02
#80000
0!
1+
0L
0N
#90000
1!
0+
1L
1N
12
0?!
0@!
0A!
0B!
1C!
0:!
0;!
0<!
0=!
1>!
1M
#100000
0!
1+
0L
0N
02
#110000
1!
0+
1L
1N
12
#120000
0!
1+
0L
0N
02
#130000
1!
0+
1L
1N
12
#140000
0!
1+
0L
0N
02
#150000
1!
0+
1L
1N
12
#160000
0!
1+
0L
0N
02
#170000
1!
0+
1L
1N
12
#180000
0!
1+
0L
0N
02
#190000
1!
0+
1L
1N
12
#200000
0!
1+
0L
0N
02
#210000
1!
0+
1L
1N
12
#220000
0!
1+
0L
0N
02
#230000
1!
0+
1L
1N
12
#240000
0!
1+
0L
0N
02
#250000
1!
0+
1L
1N
12
#260000
0!
1+
0L
0N
02
#270000
1!
0+
1L
1N
12
#280000
0!
1+
0L
0N
02
#290000
1!
0+
1L
1N
12
#300000
0!
1+
0L
0N
02
#310000
1!
0+
1L
1N
12
#320000
0!
1+
0L
0N
02
#330000
1!
0+
1L
1N
12
#340000
0!
1+
0L
0N
02
#350000
1!
0+
1L
1N
12
#360000
0!
1+
0L
0N
02
#370000
1!
0+
1L
1N
12
#380000
0!
1+
0L
0N
02
#390000
1!
0+
1L
1N
12
#400000
0!
1+
0L
0N
02
#410000
1!
0+
1L
1N
12
#420000
0!
1+
0L
0N
02
#430000
1!
0+
1L
1N
12
#440000
0!
1+
0L
0N
02
#450000
1!
0+
1L
1N
12
#460000
0!
1+
0L
0N
02
#470000
1!
0+
1L
1N
12
#480000
0!
1+
0L
0N
02
#490000
1!
0+
1L
1N
12
#500000
0!
1+
0L
0N
02
#510000
1!
0+
1L
1N
12
#520000
0!
1+
0L
0N
02
#530000
1!
0+
1L
1N
12
#540000
0!
1+
0L
0N
02
#550000
1!
0+
1L
1N
12
#560000
0!
1+
0L
0N
02
#570000
1!
0+
1L
1N
12
#580000
0!
1+
0L
0N
02
#590000
1!
0+
1L
1N
12
#600000
0!
1+
0L
0N
02
#610000
1!
0+
1L
1N
12
#620000
0!
1+
0L
0N
02
#630000
1!
0+
1L
1N
12
#640000
0!
1+
0L
0N
02
#650000
1!
0+
1L
1N
12
#660000
0!
1+
0L
0N
02
#670000
1!
0+
1L
1N
12
#680000
0!
1+
0L
0N
02
#690000
1!
0+
1L
1N
12
#700000
0!
1+
0L
0N
02
#710000
1!
0+
1L
1N
12
#720000
0!
1+
0L
0N
02
#730000
1!
0+
1L
1N
12
#740000
0!
1+
0L
0N
02
#750000
1!
0+
1L
1N
12
#760000
0!
1+
0L
0N
02
#770000
1!
0+
1L
1N
12
#780000
0!
1+
0L
0N
02
#790000
1!
0+
1L
1N
12
#800000
0!
1+
0L
0N
02
#810000
1!
0+
1L
1N
12
#820000
0!
1+
0L
0N
02
#830000
1!
0+
1L
1N
12
#840000
0!
1+
0L
0N
02
#850000
1!
0+
1L
1N
12
#860000
0!
1+
0L
0N
02
#870000
1!
0+
1L
1N
12
#880000
0!
1+
0L
0N
02
#890000
1!
0+
1L
1N
12
#900000
0!
1+
0L
0N
02
#910000
1!
0+
1L
1N
12
#920000
0!
1+
0L
0N
02
#930000
1!
0+
1L
1N
12
#940000
0!
1+
0L
0N
02
#950000
1!
0+
1L
1N
12
#960000
0!
1+
0L
0N
02
#970000
1!
0+
1L
1N
12
#980000
0!
1+
0L
0N
02
#990000
1!
0+
1L
1N
12
#1000000
0!
1+
0L
0N
02
#1010000
1!
0+
1L
1N
12
#1020000
0!
1+
0L
0N
02
#1030000
1!
0+
1L
1N
12
#1040000
0!
1+
0L
0N
02
#1050000
1!
0+
1L
1N
12
#1060000
0!
1+
0L
0N
02
#1070000
1!
0+
1L
1N
12
#1080000
0!
1+
0L
0N
02
#1090000
1!
0+
1L
1N
12
#1100000
0!
1+
0L
0N
02
#1110000
1!
0+
1L
1N
12
#1120000
0!
1+
0L
0N
02
#1130000
1!
0+
1L
1N
12
#1140000
0!
1+
0L
0N
02
#1150000
1!
0+
1L
1N
12
#1160000
0!
1+
0L
0N
02
#1170000
1!
0+
1L
1N
12
#1180000
0!
1+
0L
0N
02
#1190000
1!
0+
1L
1N
12
#1200000
0!
1+
0L
0N
02
#1210000
1!
0+
1L
1N
12
#1220000
0!
1+
0L
0N
02
#1230000
1!
0+
1L
1N
12
#1240000
0!
1+
0L
0N
02
#1250000
1!
0+
1L
1N
12
#1260000
0!
1+
0L
0N
02
0C!
0>!
0M
#1270000
1!
0+
1L
1N
12
#1280000
0!
1+
0L
0N
02
#1290000
1!
0+
1L
1N
12
#1300000
0!
1+
0L
0N
02
#1310000
1!
0+
1L
1N
12
#1320000
0!
1+
0L
0N
02
#1330000
1!
0+
1L
1N
12
#1340000
0!
1+
0L
0N
02
#1350000
1!
0+
1L
1N
12
#1360000
0!
1+
0L
0N
02
#1370000
1!
0+
1L
1N
12
#1380000
0!
1+
0L
0N
02
#1390000
1!
0+
1L
1N
12
#1400000
0!
1+
0L
0N
02
#1410000
1!
0+
1L
1N
12
#1420000
0!
1+
0L
0N
02
#1430000
1!
0+
1L
1N
12
#1440000
0!
1+
0L
0N
02
#1450000
1!
0+
1L
1N
12
#1460000
0!
1+
0L
0N
02
#1470000
1!
0+
1L
1N
12
#1480000
0!
1+
0L
0N
02
#1490000
1!
0+
1L
1N
12
#1500000
0!
1+
0L
0N
02
#1510000
1!
0+
1L
1N
12
#1520000
0!
1+
0L
0N
02
#1530000
1!
0+
1L
1N
12
#1540000
0!
1+
0L
0N
02
#1550000
1!
0+
1L
1N
12
#1560000
0!
1+
0L
0N
02
#1570000
1!
0+
1L
1N
12
#1580000
0!
1+
0L
0N
02
#1590000
1!
0+
1L
1N
12
#1600000
0!
1+
0L
0N
02
#1610000
1!
0+
1L
1N
12
#1620000
0!
1+
0L
0N
02
#1630000
1!
0+
1L
1N
12
#1640000
0!
1+
0L
0N
02
#1650000
1!
0+
1L
1N
12
#1660000
0!
1+
0L
0N
02
#1670000
1!
0+
1L
1N
12
#1680000
0!
1+
0L
0N
02
#1690000
1!
0+
1L
1N
12
#1700000
0!
1+
0L
0N
02
#1710000
1!
0+
1L
1N
12
#1720000
0!
1+
0L
0N
02
#1730000
1!
0+
1L
1N
12
#1740000
0!
1+
0L
0N
02
#1750000
1!
0+
1L
1N
12
#1760000
0!
1+
0L
0N
02
#1770000
1!
0+
1L
1N
12
#1780000
0!
1+
0L
0N
02
#1790000
1!
0+
1L
1N
12
#1800000
0!
1+
0L
0N
02
#1810000
1!
0+
1L
1N
12
#1820000
0!
1+
0L
0N
02
#1830000
1!
0+
1L
1N
12
#1840000
0!
1+
0L
0N
02
#1850000
1!
0+
1L
1N
12
#1860000
0!
1+
0L
0N
02
#1870000
1!
0+
1L
1N
12
#1880000
0!
1+
0L
0N
02
#1890000
1!
0+
1L
1N
12
#1900000
0!
1+
0L
0N
02
#1910000
1!
0+
1L
1N
12
#1920000
0!
1+
0L
0N
02
#1930000
1!
0+
1L
1N
12
#1940000
0!
1+
0L
0N
02
#1950000
1!
0+
1L
1N
12
#1960000
0!
1+
0L
0N
02
#1970000
1!
0+
1L
1N
12
#1980000
0!
1+
0L
0N
02
#1990000
1!
0+
1L
1N
12
#2000000
0!
1+
0L
0N
02
#2010000
1!
0+
1L
1N
12
#2020000
0!
1+
0L
0N
02
#2030000
1!
0+
1L
1N
12
#2040000
0!
1+
0L
0N
02
#2050000
1!
0+
1L
1N
12
#2060000
0!
1+
0L
0N
02
#2070000
1!
0+
1L
1N
12
#2080000
0!
1+
0L
0N
02
#2090000
1!
0+
1L
1N
12
#2100000
0!
1+
0L
0N
02
#2110000
1!
0+
1L
1N
12
#2120000
0!
1+
0L
0N
02
#2130000
1!
0+
1L
1N
12
#2140000
0!
1+
0L
0N
02
#2150000
1!
0+
1L
1N
12
#2160000
0!
1+
0L
0N
02
#2170000
1!
0+
1L
1N
12
#2180000
0!
1+
0L
0N
02
#2190000
1!
0+
1L
1N
12
#2200000
0!
1+
0L
0N
02
#2210000
1!
0+
1L
1N
12
#2220000
0!
1+
0L
0N
02
#2230000
1!
0+
1L
1N
12
#2240000
0!
1+
0L
0N
02
#2250000
1!
0+
1L
1N
12
#2260000
0!
1+
0L
0N
02
#2270000
1!
0+
1L
1N
12
#2280000
0!
1+
0L
0N
02
#2290000
1!
0+
1L
1N
12
#2300000
0!
1+
0L
0N
02
#2310000
1!
0+
1L
1N
12
#2320000
0!
1+
0L
0N
02
#2330000
1!
0+
1L
1N
12
#2340000
0!
1+
0L
0N
02
#2350000
1!
0+
1L
1N
12
#2360000
0!
1+
0L
0N
02
#2370000
1!
0+
1L
1N
12
#2380000
0!
1+
0L
0N
02
#2390000
1!
0+
1L
1N
12
#2400000
0!
1+
0L
0N
02
#2410000
1!
0+
1L
1N
12
#2420000
0!
1+
0L
0N
02
#2430000
1!
0+
1L
1N
12
#2440000
0!
1+
0L
0N
02
#2450000
1!
0+
1L
1N
12
#2460000
0!
1+
0L
0N
02
#2470000
1!
0+
1L
1N
12
#2480000
0!
1+
0L
0N
02
#2490000
1!
0+
1L
1N
12
#2500000
0!
1+
0L
0N
02
#2510000
1!
0+
1L
1N
12
1C!
1>!
1M
1y
1w
1S
1Q
0-!
1z
1#!
0x
1T
0:
0R
16
0.!
01!
0=
0>
11!
14!
1>
1i
04!
0i
#2520000
0!
1+
0L
0N
02
#2530000
1!
0+
1L
1N
12
#2540000
0!
1+
0L
0N
02
#2550000
1!
0+
1L
1N
12
#2560000
0!
1+
0L
0N
02
#2570000
1!
0+
1L
1N
12
#2580000
0!
1+
0L
0N
02
#2590000
1!
0+
1L
1N
12
#2600000
0!
1+
0L
0N
02
#2610000
1!
0+
1L
1N
12
#2620000
0!
1+
0L
0N
02
#2630000
1!
0+
1L
1N
12
#2640000
0!
1+
0L
0N
02
#2650000
1!
0+
1L
1N
12
#2660000
0!
1+
0L
0N
02
#2670000
1!
0+
1L
1N
12
#2680000
0!
1+
0L
0N
02
#2690000
1!
0+
1L
1N
12
#2700000
0!
1+
0L
0N
02
#2710000
1!
0+
1L
1N
12
#2720000
0!
1+
0L
0N
02
#2730000
1!
0+
1L
1N
12
#2740000
0!
1+
0L
0N
02
#2750000
1!
0+
1L
1N
12
#2760000
0!
1+
0L
0N
02
#2770000
1!
0+
1L
1N
12
#2780000
0!
1+
0L
0N
02
#2790000
1!
0+
1L
1N
12
#2800000
0!
1+
0L
0N
02
#2810000
1!
0+
1L
1N
12
#2820000
0!
1+
0L
0N
02
#2830000
1!
0+
1L
1N
12
#2840000
0!
1+
0L
0N
02
#2850000
1!
0+
1L
1N
12
#2860000
0!
1+
0L
0N
02
#2870000
1!
0+
1L
1N
12
#2880000
0!
1+
0L
0N
02
#2890000
1!
0+
1L
1N
12
#2900000
0!
1+
0L
0N
02
#2910000
1!
0+
1L
1N
12
#2920000
0!
1+
0L
0N
02
#2930000
1!
0+
1L
1N
12
#2940000
0!
1+
0L
0N
02
#2950000
1!
0+
1L
1N
12
#2960000
0!
1+
0L
0N
02
#2970000
1!
0+
1L
1N
12
#2980000
0!
1+
0L
0N
02
#2990000
1!
0+
1L
1N
12
#3000000
0!
1+
0L
0N
02
#3010000
1!
0+
1L
1N
12
#3020000
0!
1+
0L
0N
02
#3030000
1!
0+
1L
1N
12
#3040000
0!
1+
0L
0N
02
#3050000
1!
0+
1L
1N
12
#3060000
0!
1+
0L
0N
02
#3070000
1!
0+
1L
1N
12
#3080000
0!
1+
0L
0N
02
#3090000
1!
0+
1L
1N
12
#3100000
0!
1+
0L
0N
02
#3110000
1!
0+
1L
1N
12
#3120000
0!
1+
0L
0N
02
#3130000
1!
0+
1L
1N
12
#3140000
0!
1+
0L
0N
02
#3150000
1!
0+
1L
1N
12
#3160000
0!
1+
0L
0N
02
#3170000
1!
0+
1L
1N
12
#3180000
0!
1+
0L
0N
02
#3190000
1!
0+
1L
1N
12
#3200000
0!
1+
0L
0N
02
#3210000
1!
0+
1L
1N
12
#3220000
0!
1+
0L
0N
02
#3230000
1!
0+
1L
1N
12
#3240000
0!
1+
0L
0N
02
#3250000
1!
0+
1L
1N
12
#3260000
0!
1+
0L
0N
02
#3270000
1!
0+
1L
1N
12
#3280000
0!
1+
0L
0N
02
#3290000
1!
0+
1L
1N
12
#3300000
0!
1+
0L
0N
02
#3310000
1!
0+
1L
1N
12
#3320000
0!
1+
0L
0N
02
#3330000
1!
0+
1L
1N
12
#3340000
0!
1+
0L
0N
02
#3350000
1!
0+
1L
1N
12
#3360000
0!
1+
0L
0N
02
#3370000
1!
0+
1L
1N
12
#3380000
0!
1+
0L
0N
02
#3390000
1!
0+
1L
1N
12
#3400000
0!
1+
0L
0N
02
#3410000
1!
0+
1L
1N
12
#3420000
0!
1+
0L
0N
02
#3430000
1!
0+
1L
1N
12
#3440000
0!
1+
0L
0N
02
#3450000
1!
0+
1L
1N
12
#3460000
0!
1+
0L
0N
02
#3470000
1!
0+
1L
1N
12
#3480000
0!
1+
0L
0N
02
#3490000
1!
0+
1L
1N
12
#3500000
0!
1+
0L
0N
02
#3510000
1!
0+
1L
1N
12
#3520000
0!
1+
0L
0N
02
#3530000
1!
0+
1L
1N
12
#3540000
0!
1+
0L
0N
02
#3550000
1!
0+
1L
1N
12
#3560000
0!
1+
0L
0N
02
#3570000
1!
0+
1L
1N
12
#3580000
0!
1+
0L
0N
02
#3590000
1!
0+
1L
1N
12
#3600000
0!
1+
0L
0N
02
#3610000
1!
0+
1L
1N
12
#3620000
0!
1+
0L
0N
02
#3630000
1!
0+
1L
1N
12
#3640000
0!
1+
0L
0N
02
#3650000
1!
0+
1L
1N
12
#3660000
0!
1+
0L
0N
02
#3670000
1!
0+
1L
1N
12
#3680000
0!
1+
0L
0N
02
#3690000
1!
0+
1L
1N
12
#3700000
0!
1+
0L
0N
02
#3710000
1!
0+
1L
1N
12
#3720000
0!
1+
0L
0N
02
#3730000
1!
0+
1L
1N
12
#3740000
0!
1+
0L
0N
02
#3750000
1!
0+
1L
1N
12
#3760000
0!
1+
0L
0N
02
0C!
0>!
0M
#3770000
1!
0+
1L
1N
12
#3780000
0!
1+
0L
0N
02
#3790000
1!
0+
1L
1N
12
#3800000
0!
1+
0L
0N
02
#3810000
1!
0+
1L
1N
12
#3820000
0!
1+
0L
0N
02
#3830000
1!
0+
1L
1N
12
#3840000
0!
1+
0L
0N
02
#3850000
1!
0+
1L
1N
12
#3860000
0!
1+
0L
0N
02
#3870000
1!
0+
1L
1N
12
#3880000
0!
1+
0L
0N
02
#3890000
1!
0+
1L
1N
12
#3900000
0!
1+
0L
0N
02
#3910000
1!
0+
1L
1N
12
#3920000
0!
1+
0L
0N
02
#3930000
1!
0+
1L
1N
12
#3940000
0!
1+
0L
0N
02
#3950000
1!
0+
1L
1N
12
#3960000
0!
1+
0L
0N
02
#3970000
1!
0+
1L
1N
12
#3980000
0!
1+
0L
0N
02
#3990000
1!
0+
1L
1N
12
#4000000
0!
1+
0L
0N
02
#4010000
1!
0+
1L
1N
12
#4020000
0!
1+
0L
0N
02
#4030000
1!
0+
1L
1N
12
#4040000
0!
1+
0L
0N
02
#4050000
1!
0+
1L
1N
12
#4060000
0!
1+
0L
0N
02
#4070000
1!
0+
1L
1N
12
#4080000
0!
1+
0L
0N
02
#4090000
1!
0+
1L
1N
12
#4100000
0!
1+
0L
0N
02
#4110000
1!
0+
1L
1N
12
#4120000
0!
1+
0L
0N
02
#4130000
1!
0+
1L
1N
12
#4140000
0!
1+
0L
0N
02
#4150000
1!
0+
1L
1N
12
#4160000
0!
1+
0L
0N
02
#4170000
1!
0+
1L
1N
12
#4180000
0!
1+
0L
0N
02
#4190000
1!
0+
1L
1N
12
#4200000
0!
1+
0L
0N
02
#4210000
1!
0+
1L
1N
12
#4220000
0!
1+
0L
0N
02
#4230000
1!
0+
1L
1N
12
#4240000
0!
1+
0L
0N
02
#4250000
1!
0+
1L
1N
12
#4260000
0!
1+
0L
0N
02
#4270000
1!
0+
1L
1N
12
#4280000
0!
1+
0L
0N
02
#4290000
1!
0+
1L
1N
12
#4300000
0!
1+
0L
0N
02
#4310000
1!
0+
1L
1N
12
#4320000
0!
1+
0L
0N
02
#4330000
1!
0+
1L
1N
12
#4340000
0!
1+
0L
0N
02
#4350000
1!
0+
1L
1N
12
#4360000
0!
1+
0L
0N
02
#4370000
1!
0+
1L
1N
12
#4380000
0!
1+
0L
0N
02
#4390000
1!
0+
1L
1N
12
#4400000
0!
1+
0L
0N
02
#4410000
1!
0+
1L
1N
12
#4420000
0!
1+
0L
0N
02
#4430000
1!
0+
1L
1N
12
#4440000
0!
1+
0L
0N
02
#4450000
1!
0+
1L
1N
12
#4460000
0!
1+
0L
0N
02
#4470000
1!
0+
1L
1N
12
#4480000
0!
1+
0L
0N
02
#4490000
1!
0+
1L
1N
12
#4500000
0!
1+
0L
0N
02
#4510000
1!
0+
1L
1N
12
#4520000
0!
1+
0L
0N
02
#4530000
1!
0+
1L
1N
12
#4540000
0!
1+
0L
0N
02
#4550000
1!
0+
1L
1N
12
#4560000
0!
1+
0L
0N
02
#4570000
1!
0+
1L
1N
12
#4580000
0!
1+
0L
0N
02
#4590000
1!
0+
1L
1N
12
#4600000
0!
1+
0L
0N
02
#4610000
1!
0+
1L
1N
12
#4620000
0!
1+
0L
0N
02
#4630000
1!
0+
1L
1N
12
#4640000
0!
1+
0L
0N
02
#4650000
1!
0+
1L
1N
12
#4660000
0!
1+
0L
0N
02
#4670000
1!
0+
1L
1N
12
#4680000
0!
1+
0L
0N
02
#4690000
1!
0+
1L
1N
12
#4700000
0!
1+
0L
0N
02
#4710000
1!
0+
1L
1N
12
#4720000
0!
1+
0L
0N
02
#4730000
1!
0+
1L
1N
12
#4740000
0!
1+
0L
0N
02
#4750000
1!
0+
1L
1N
12
#4760000
0!
1+
0L
0N
02
#4770000
1!
0+
1L
1N
12
#4780000
0!
1+
0L
0N
02
#4790000
1!
0+
1L
1N
12
#4800000
0!
1+
0L
0N
02
#4810000
1!
0+
1L
1N
12
#4820000
0!
1+
0L
0N
02
#4830000
1!
0+
1L
1N
12
#4840000
0!
1+
0L
0N
02
#4850000
1!
0+
1L
1N
12
#4860000
0!
1+
0L
0N
02
#4870000
1!
0+
1L
1N
12
#4880000
0!
1+
0L
0N
02
#4890000
1!
0+
1L
1N
12
#4900000
0!
1+
0L
0N
02
#4910000
1!
0+
1L
1N
12
#4920000
0!
1+
0L
0N
02
#4930000
1!
0+
1L
1N
12
#4940000
0!
1+
0L
0N
02
#4950000
1!
0+
1L
1N
12
#4960000
0!
1+
0L
0N
02
#4970000
1!
0+
1L
1N
12
#4980000
0!
1+
0L
0N
02
#4990000
1!
0+
1L
1N
12
#5000000
0!
1+
0L
0N
02
#5010000
1!
0+
1L
1N
12
1C!
1>!
1M
1{
0y
1U
0S
0,!
1I
1-!
0z
1B
0<
0T
1:
#5020000
0!
1+
0L
0N
02
#5030000
1!
0+
1L
1N
12
#5040000
0!
1+
0L
0N
02
#5050000
1!
0+
1L
1N
12
#5060000
0!
1+
0L
0N
02
#5070000
1!
0+
1L
1N
12
#5080000
0!
1+
0L
0N
02
#5090000
1!
0+
1L
1N
12
#5100000
0!
1+
0L
0N
02
#5110000
1!
0+
1L
1N
12
#5120000
0!
1+
0L
0N
02
#5130000
1!
0+
1L
1N
12
#5140000
0!
1+
0L
0N
02
#5150000
1!
0+
1L
1N
12
#5160000
0!
1+
0L
0N
02
#5170000
1!
0+
1L
1N
12
#5180000
0!
1+
0L
0N
02
#5190000
1!
0+
1L
1N
12
#5200000
0!
1+
0L
0N
02
#5210000
1!
0+
1L
1N
12
#5220000
0!
1+
0L
0N
02
#5230000
1!
0+
1L
1N
12
#5240000
0!
1+
0L
0N
02
#5250000
1!
0+
1L
1N
12
#5260000
0!
1+
0L
0N
02
#5270000
1!
0+
1L
1N
12
#5280000
0!
1+
0L
0N
02
#5290000
1!
0+
1L
1N
12
#5300000
0!
1+
0L
0N
02
#5310000
1!
0+
1L
1N
12
#5320000
0!
1+
0L
0N
02
#5330000
1!
0+
1L
1N
12
#5340000
0!
1+
0L
0N
02
#5350000
1!
0+
1L
1N
12
#5360000
0!
1+
0L
0N
02
#5370000
1!
0+
1L
1N
12
#5380000
0!
1+
0L
0N
02
#5390000
1!
0+
1L
1N
12
#5400000
0!
1+
0L
0N
02
#5410000
1!
0+
1L
1N
12
#5420000
0!
1+
0L
0N
02
#5430000
1!
0+
1L
1N
12
